EDI_UDR_DPRCP_20160425
Tablename	Actflag	Acttime	Announcedate	SecID	UnSecID	DRRatio	USRatio	SpnFlag	DPRCPNotes	DRtype	DepBank	LevDesc	OtherDepBank
DPRCP	U	2003/05/19 15:36:30	2002/09/18	64149	50654	1.0000000	5.0000000	T		ADR	BNY	LEVEL III	
DPRCP	U	2005/06/07 19:27:15	2003/05/29	69179	50737	1.0000000	4.0000000	T		ADR	BNY	LEVEL III	
DPRCP	U	2015/01/20 06:52:18	2002/02/11	70511	52722	1.0000000	150.0000000	T		ADR	BNY	LEVEL II	
DPRCP	U	2005/12/30 19:29:03	2002/02/20	71446	6668	1.0000000	10.0000000	T		ADR	BNY	LEVEL II	
DPRCP	U	2014/01/08 19:08:55	2002/02/21	71651	19255	1.0000000	1.0000000	T		ADR	DB	LEVEL II	
DPRCP	U	2012/01/03 07:11:08	2002/03/05	72535	10398	1.0000000	25.0000000	T		ADR	BNY	LEVEL II	
DPRCP	U	2015/02/02 07:22:10	2002/04/04	74885	9580	1.0000000	5.0000000	T		ADR	JPM	LEVEL III	
DPRCP	U	2003/06/02 17:27:27	2002/04/11	75237	6409	1.0000000	10.0000000	T		ADR	BNY	LEVEL II	
DPRCP	U	2012/11/27 06:58:18	2002/04/19	75515	18817	1.0000000	10.0000000	T		ADR	DB	LEVEL II	
DPRCP	U	2005/07/07 20:57:26	2002/04/24	75789	63131	1.0000000	20.0000000	T		ADR	BNY	LEVEL II	
DPRCP	U	2003/05/31 12:47:37	2002/05/13	77383	21575	1.0000000	1.0000000	T		ADR	BNY	LEVEL II	
DPRCP	U	2015/06/08 08:25:32	2002/05/22	78397	21825	1.0000000	1.0000000	T		ADR	JPM	LEVEL II	
DPRCP	U	2011/11/30 16:23:58	2003/05/29	78421	21879	1.0000000	1.0000000	T		ADR	CIT	LEVEL II	
DPRCP	U	2012/09/26 06:57:56	2002/05/27	78951	78950	2.0000000	1.0000000	T		ADR	BNY	LEVEL II	
DPRCP	U	2003/08/09 11:05:08	2003/06/06	79250	60229	1.0000000	1.0000000	T		NYS	JPM	LEVEL II	
DPRCP	U	2006/10/20 16:49:41	2002/06/05	79307	60070	1.0000000	25.0000000	T		ADR	BNY	LEVEL III	
DPRCP	U	2003/05/09 17:49:32	2002/06/25	80425	4390	1.0000000	3.0000000	T		ADR	BNY	LEVEL III	
DPRCP	U	2014/07/14 10:33:52	2002/10/25	80976	85429	1.0000000	1.0000000	T		ADR	CIT	LEVEL II	
DPRCP	U	2005/12/11 19:43:14	2002/07/17	82022	5991	1.0000000	1.0000000	T	(As on 07/03/03)<BR>  -<BR>  SITUATION:      ADR RATIO CHANGE ( BY WAY OF ISSUE OF ADDITIONAL ADRS)<BR>                  EX DISTRIBUTION DATE IS NOW EXPECTED BE 11TH MARCH <BR>                  2003.<BR>                   <BR>  -<BR>  RELATIVE DETAILS AND DATES: <BR>  11 MAR 03       Expected Ex distribution date for additional ADR.<BR><BR>  -<BR><BR>(As on 05/02/03)<BR>  -<BR>  SITUATION:      ADR RATIO CHANGE ( BY WAY OF ISSUE OF ADDITIONAL ADRS)<BR>                  ADDITIONAL INFORMATION<BR>                   <BR>  -<BR>  TERMS:          THE CHANGE IN THE ADR RATIO WILL BE IMPLEMENTED BY THE <BR>                  ISSUE OF ADDITIONAL ADRS TO HOLDERS ON THE FOLLOWING <BR>                  BASIS:<BR>                  1 ADDITIONAL ADR FOR EACH ADR HELD ON 7TH MARCH 2003.<BR>                  <BR>                  WITH EFFECT FROM 10TH MARCH 2003 THE ADR RATIO WILL <BR>                  CHANGE FROM:<BR>                  EACH ADR REPRESENTING 2 ORDINARY SHARES OF USD0.10<BR>                  TO<BR>                  EACH ADR REPRESENTING 1 ORDINARY SHARE OF USD0.10<BR>                   <BR>                  THE ISIN/SEDOL WILL REMAIN UNCHANGED WITH THE <BR>                  DESCRIPTION AMENDED<BR>                   <BR>  -<BR>  RELATIVE DETAILS AND DATES: <BR><BR>  07 MAR 03       Record Date.<BR><BR>  10 MAR 03       Effective date for ADR Ratio Change.<BR><BR>  10 MAR 03       Expected Ex distribution date for additional ADR.<BR><BR>  -<BR>  ADDITIONAL INFORMATION:<BR>  <BR>  CERTIFICATES: Existing ADR certificates will remain valid and will <BR>  not have to be exchanged.<BR>  -<BR><BR>(As on 13/02/03)<BR>  -<BR>  SITUATION:      ADR RATIO CHANGE<BR>                   <BR>  -<BR>  TERMS:          THE COMPANY HAS DECIDED TO SPLIT THE ADR RATIO FROM THE <BR>                  CURRENT RATIO OF:<BR>                  EACH ADR REPRESENTING 2 ORDINARY SHARES OF USD0.10<BR>                  TO <BR>                  EACH ADR REPRESENTING 1 ORDINARY SHARE OF USD0.10<BR>                   <BR>  -<BR>  TITLES                                                  SETTLEMENT TYPE:<BR>  3-179-112       RANDGOLD RESOURCES ADS EACH REP 2 ORD USD0.10 <BR>                  (US7523443098)                                      N/A<BR><BR>  -<BR>  RELATIVE DETAILS AND DATES: <BR><BR>  The Company has initiated the process of effecting the ratio change <BR>  and will issue a further announcement within the next 30 days. A <BR>  further Stock Situation Notice will be issued if and when further <BR>  details become available.<BR><BR>  -<BR>  ADDITIONAL INFORMATION:<BR><BR>  -<BR>	ADR	BNY	LEVEL II	
DPRCP	U	2014/07/08 14:31:30	2002/09/26	82751	265028	1.0000000	1.0000000	T		ADR	CIT	LEVEL II	
DPRCP	U	2003/05/05 18:05:08	2002/08/22	83497	6534	1.0000000	40.0000000	T		ADR	BNY	LEVEL II	
DPRCP	U	2016/03/24 07:14:09	2002/09/06	83916	52761	1.0000000	60.0000000	T		ADR	BNY	LEVEL II	
DPRCP	U	2003/05/02 17:25:11	2002/09/23	84389	6753	1.0000000	10.0000000	T		ADR	BNY	LEVEL II	
DPRCP	U	2015/12/02 07:11:52	2003/12/31	123141	1736510	8.0000000	1.0000000	T		ADR	BNY	LEVEL III	
DPRCP	U	2014/08/08 07:07:21	2004/10/06	184357	184356	1.0000000	1.0000000	T	As on 05/10/04) DRQA<BR>lease add the following new DR :<BR>51job, Inc.<BR><BR>ADR effective date: October 4, 2004<BR>ADRs placed: 6,037,500<BR>ADR offer price: USD14.00<BR>Total ADR offering value: USD84,525,000<BR>Exchange: Nasdaq<BR>Symbol: JOBS<BR>Ratio: 1 ADR: 2 common shares<BR>CUSIP: 316827 10 4<BR>Share class: Common shares<BR>Country of incorporation: Cayman Islands<BR>Industry: Online recruiting<BR>Depositary: JPMorgan Chase Bank<BR>Custodian: Hongkong & Shanghai Banking Co. Ltd., Hong Kong	ADR	JPM	LEVEL III	
DPRCP	U	2004/12/29 15:27:39	2004/12/24	207269	206746	1.0000000	1.0000000	T	[As on 23/12/04]<BR>Symbol : NCTY<BR>CUSIP : 88337K104<BR>Exchange : Nasdaq<BR>Ratio : 1:1<BR>Country : China<BR>Industry : Leisure Goods & Svcs<BR>Depositary : BNY (Sponsored)<BR>Effective Date : Dec 14,2004<BR>U.S. ISIN : US88337K1043<BR>	ADR	BNY	LEVEL II	
DPRCP	U	2005/03/09 14:43:06	2005/02/08	218838	218833	1.0000000	40.0000000	T	(as on 31/01/05)<BR>KONGZHONG CORPORATION     <BR>Symbol: KONG <BR> CUSIP: 50047P104<BR> Exchange: NASDAQ<BR> Ratio: 1:40<BR> Country: Hong Kong   <BR> Industry: Mobile Telecom.<BR> Depositary: CIT (Sponsored) <BR> Effective Date: Jul 14, 2004<BR>	ADR	CIT	LEVEL II	
DPRCP	U	2011/02/15 16:53:36	2005/02/10	219462	20394	1.0000000	1.0000000	T	(as on 21/03/05)<BR>Please add the following DR :<BR><BR>AIXTRON AG<BR><BR>Symbol: AIXG <BR>CUSIP: 009606104<BR>Exchange: NASDAQ<BR>Ratio: 1:1<BR>Country: Germany <BR>Industry: Mobile Telecom.<BR>Depositary: MGT (Sponsored) <BR>Effective Date: Mar 15, 2005<BR>U.S. ISIN: US0096061041 <BR><BR>AIXTRON AKTIENGESELLSCHAFT  <BR> <BR>DEV. EUROPE SEMICONDUCTOR EQUIPMENT <BR>GERMANY http://www.aixtron.com <BR>  <BR>ADR Details <BR>  <BR>Cusip 009606104 <BR>Ticker AIXG <BR>Sedol B06JQB3 <BR>ISIN US0096061041 <BR>Ratio (A:O) 1 : 1 <BR>Level LEVEL II <BR>Type ADR <BR>Effective Date 03/01/05 <BR>Exchange NASDAQ <BR>Sponsorship S <BR>Depositary JPM <BR>Custodian   <BR> <BR>Underlying Details <BR>  <BR>Ticker AIX <BR>Sedol 5468346 <BR>ISIN DE0005066203 <BR>Exchange FRANKFURT <BR><BR><BR>(as on 15/03/05)USDR<BR>For further information, please contact:<BR>JPMorgan Service Center ADR Liquidity Solutions ADR Settlements<BR>781-575-4328 212-622-2601 302-552-0230<BR>Sponsored ADR program opening announcement and notice of merger completion<BR>AIXTRON Aktiengesellschaft ( AIXTRON )<BR>JPMorgan announced today the opening of a new sponsored American Depositary Receipt (ADR) facility<BR>for AIXTRON (Nasdaq: AIXG). AIXTRON is the leading provider of deposition equipment to the<BR>compound semiconductor industry, as well as a specialized equipment supplier to the silicon<BR>semiconductor and display industries. The company s products are used by a diverse range of<BR>customers worldwide to manufacture advanced semiconductor components used in fiber optic<BR>communication systems, wireless and mobile telephony applications, optical storage devices,<BR>illumination, signaling and lighting.<BR>Concurrent with the opening of its ADR program, AIXTRON has announced the completion of the merger<BR>with Genus, Inc., a California corporation. Genus shareholders approved the merger at a Special<BR>Shareholders  meeting held on March 10, 2005. AIXTRON has increased its share capital by issuing<BR>24,967,985 new AIXTRON ordinary shares against all issued and outstanding Genus common shares as<BR>contribution in kind. Genus shareholders will receive 0.51 AIXTRON ADRs in exchange for each Genus<BR>common share (CUSIP: 372461103).<BR>ADR effective date: March 15, 2005<BR>Symbol: AIXG<BR>Exchange: Nasdaq<BR>CUSIP: 009606 10 4<BR>Ratio: 1 ADR: 1 ordinary bearer share<BR>Country of incorporation: Germany<BR>Industry: Semiconductor equipment<BR>Custodian: Bayerische Hypo - und Vereinsbank AG, Munich<BR>Depositary: JPMorgan Chase Bank, N.A.<BR>JPMorgan Chase & Co. (NYSE: JPM) is a leading global financial services firm with assets of USD1.2 trillion<BR>and operations in more than 50 countries. The firm is a leader in investment banking, financial<BR>services for consumers and businesses, financial transaction processing, asset and wealth management,<BR>and private equity. A component of the Dow Jones Industrial Average, JPMorgan Chase & Co. has its<BR>corporate headquarters in New York and its U.S. retail financial services and commercial banking<BR>headquarters in Chicago. Under the JPMorgan, Chase and Bank One brands, the firm serves millions of<BR>consumers in the United States and many of the world`s most prominent corporate, institutional and<BR>government clients. Information about the firm is available at www.jpmorganchase.com.<BR>More information on ADRs is available at adr.com, JPMorgan s source for ADRs and international equities. JPMorgan s Global<BR>ADRenalin equity research is available through the Bloomberg Professional  service under  ADRJ . The pricing and constituent<BR>list for the S&P ADR Index, an investable ADR index developed with JPMorgan, is available at adr.com and spglobal.com.<BR>Information on JPMorgan s ADR MAX, a web and trader -enabled platform for broker -dealers and investors to execute ADR-ordinary<BR>share cross-book transactions, can be accessed at adrmax.com. For comprehensive search tools on the entire ADR<BR>universe, see adr.com/universe.<BR>Neither this announcement nor the information contained herein constitutes an offer or solicitation by JPMorgan for the purchase<BR>or sale of any securities nor does it constitute a solicitation to any person in any jurisdiction where solicitation would be<BR>unlawful. An offering is made by means of a prospectus only. Information herein is believed to be reliable, but JPMorgan does<BR>not warrant its completeness or accuracy. Services offered through JPMorgan Chase Bank, N.A. and J.P. Morgan Securities Inc.,<BR>member NYSE/NASD/SIPC.<BR><BR>(as per Co website)<BR>AIXTRON and Genus to Merge in Stock-for-Stock Transaction <BR><BR>-- Creation of a World-Leading Supplier of `Nano` Deposition Technology to the Semiconductor Industry <BR>AACHEN, Germany and SUNNYVALE, Calif., Jul 2, 2004 (PRNewswire-FirstCall via COMTEX) -- AIXTRON AG, and Genus, Inc., both specialized equipment suppliers for the semiconductor industry, announced today that they are planning to merge. The merger of the two companies, with leading positions in their respective segments, will create one of the world`s premier suppliers of advanced deposition equipment. AIXTRON is the leading supplier of MOCVD (metal-organic chemical vapor deposition) products for the production of ultra-high brightness light emitting diodes, high frequency chips and lasers, and Genus is a leading supplier of ALD (atomic layer deposition) technology, which is required in the production of advanced semiconductors and hard disk drives. The companies are highly complementary and are an excellent strategic fit in a number of areas. <BR><BR>AIXTRON plans to acquire all outstanding Genus shares in a stock-for-stock transaction. Genus shareholders will receive 0.51 American Depository Receipts (ADRs) of AIXTRON in exchange for each Genus common share. Each AIXTRON ADR will represent one AIXTRON ordinary share. AIXTRON will seek to have the ADRs quoted on NASDAQ, which quotation is expected to become effective at the closing of the transaction. At Thursday`s close, AIXTRON`s shares were at euro 5.82; this values each Genus share at USD3.61, with an estimated total transaction value of euro 117.7 million (USD143.2 million) based on the current issued shares of Genus stock. Genus` shareholders are receiving a premium of approximately 6 percent based on Thursday`s closing prices and approximately 16 percent to the 30-day trailing average prices of the two companies` shares. Following the completion of the transaction, AIXTRON`s shareholders will hold approximately 74 percent and Genus` shareholders approximately 26 percent of the merged company. <BR>`Both companies have more than 20 years of experience in the semiconductor equipment business and are an ideal fit. The semiconductor industry increasingly requires new complex material solutions which we offer,` said Paul Hyland, president and CEO of AIXTRON. `The combined company will leverage AIXTRON`s know-how in complex material deposition and Genus` strength in new semiconductor deposition technologies for such materials. We are thereby well positioned for the next investment cycle in the semiconductor industry and to benefit from a strong position in this global industry, which enables further growth.` <BR><BR>Genus` chairman and CEO William W. R. Elder said, `Our products are highly complementary. The merger will strengthen our balance sheet, and in the medium term, the cooperation in research and development should enable the realiztion of synergies in the development and production of our products as well as additional revenue benefits.` <BR><BR><BR>	ADR	BNY	LEVEL II	
DPRCP	U	2015/05/11 08:33:56	2005/02/12	220386	220369	1.0000000	2.0000000	T	(as on 11/02/05)<BR>GRAVITY CO., LTD.<BR><BR>Symbol: GRVY <BR>CUSIP: 38911N107<BR>Exchange: NASDAQ<BR>Ratio: 4:1<BR>Country: Korea <BR>Industry: Leisure Goods<BR>Depositary: BNY (Sponsored) <BR>Effective Date: Feb 11, 2005<BR>Underlying ISIN: KR7077380004 <BR>U.S. ISIN: US38911N1072 <BR>	ADR	BNY	LEVEL III	
DPRCP	U	2016/03/01 08:46:26	2005/05/13	244152	242507	1.0000000	75.0000000	T	(as on 11/05/05)USDR<BR>China Techfaith Wireless Communication Technology Limited<BR>China Techfaith Wireless Communication Technology is engaged in wireless<BR>communication terminal products. Co. develops various types of mobile<BR>phones, based on four platforms of Philips, TI, Skyworks and Qualcomm<BR>covering products of GSM 2.5G, 2.75G, WCDMA, CDMA 1X/2000. Co.`s<BR>products include TV phone, smart phone of single CPU, smart phone of<BR>double CPUs, flip, slide, swivel, straight-line, built-in antenna and<BR>touch panel, with abundant software applications as EMS, MMS, MPEG4,<BR>KJAVA, WAP, GPRS, MP3, and blue-tooth technology<BR>Effective Date: May 5, 2005<BR>Country of Incorporation: Cayman Islands<BR>Exchange: NASDAQ<BR>Ticker Symbol: CNTF<BR>CUSIP Number: 169424108<BR>Ratio: 1 ADR: 15 Ordinary Shares<BR>Underlying Share Description: Common<BR>Industry Classification: Tech.Hardware&Equip.<BR>Local Custodian(s): Hong Kong and Shanghai Banking Corp.<BR><BR>(as on 12/05/05)<BR>CHINA TECHFAITH WIRELESS COMMUNICATION LIMITED<BR><BR>Symbol: CNTF <BR>CUSIP: 169424108<BR>Exchange: NASDAQ<BR>Ratio: 1:15<BR>Country: China <BR>Industry: Tech.Hardware&Equip.<BR>Depositary: BNY (Sponsored) <BR>Effective Date: May 05, 2005<BR>U.S. ISIN: US1694241084 <BR> <BR>Dr Type: ADS<BR><BR>Source: http://www.adrbny.com/dr_directory.jsp<BR><BR>After thorough search, no exchange was found for the above mentioned company.<BR>	ADR	BNY	LEVEL II	
DPRCP	I	2005/07/14 17:41:13	2005/07/14	266109	266106	1.0000000	4.0000000	T		ADR	BNY	LEVEL II	
DPRCP	U	2010/05/06 15:34:28	2005/08/12	273922	273921	10.0000000	1.0000000	T	(As on 11/08/05) DRQA<BR>BAIDU.COM, INC.     <BR> <BR> Symbol: BIDU <BR> CUSIP: 056752108<BR> Exchange: NASDAQ<BR> Ratio: 1:1<BR> Country: China <BR> Industry: Software&ComputerSvc<BR> Depositary: BNY (Sponsored) <BR> Effective Date: Aug 04, 2005<BR> Underlying ISIN: KYG070341048 <BR> U.S. ISIN: US0567521085 <BR>DR SEDOL: B0FXT17<BR>SECURITY DESCRIPTION: ADS EACH REPR 1 ORD CLS `A` SHS<BR><BR>	ADR	BNY	LEVEL III	
DPRCP	U	2014/07/14 12:04:59	2005/09/01	280012	22080	1.0000000	20.0000000	T	(As on 31/08/05) DRQA<BR>XTL BIOPHARMACEUTICALS LTD.<BR><BR>Symbol:  XTLB<BR>CUSIP: 98386D109<BR>Exchange: NASDAQ<BR>Ratio: 1:10<BR>Country: Israel<BR>Industry: Pharma. & Biotech.<BR>Depositary: BNY (Sponsored)<BR>Effective Date: Aug 31, 2005<BR>Underlying SEDOL: B0DBPG0<BR>Underlying ISIN: IL0010854979<BR>U.S. ISIN: US98386D1090 <BR><BR>DR Type : ORDINARY<BR>	ADR	BNY	LEVEL I	
DPRCP	I	2005/12/07 20:57:53	2005/12/07	310541	310540	1.0000000	6.0000000	T		ADR	JPM	LEVEL III	
DPRCP	U	2015/12/14 07:45:39	2005/12/15	314648	204675	1.0000000	5.0000000	T	(As on 13/12/05) USDR<BR>SECURITIES SERVICING<BR>DEPOSITARY RECEIPTS<BR><BR>New DR Announcement<BR><BR>Mesoblast Limited<BR><BR>Mesoblast Ltd. is an Australian biotechnology company engaged in the development of<BR>treatments for orthopaedic conditions. The company`s primary activity is associated with the<BR>commercialization of intellectual property associated with the isolation, culture, and scale-up of<BR>adult stem cells referred to as Mesenchymal Precursor Cells or MPCs. Mesoblast Ltd. develops<BR>therapeutic approaches for patients with bone and joint diseases, including adult stem cell therapy<BR>for bone fractures and spinal disease, and for regeneration of damaged joint cartilage and<BR>intervertebral discs.<BR><BR>Effective Date: December 13, 2005<BR>Country of Incorporation: Australia<BR>Exchange: OTC<BR>Ticker Symbol: MBLTY<BR>CUSIP Number: 590717104<BR>Ratio: 1 ADR: 5 Ordinary Shares<BR>Underlying Share Description: Ordinary<BR>Industry Classification: Pharma. & Biotech.<BR>Local Custodian(s): Australia and New Zealand Banking Group Ltd<BR>National Australia Bank Ltd	ADR	JPM	LEVEL III	
DPRCP	U	2012/05/30 16:16:51	2006/04/06	354296	122310	1.0000000	2.0000000	T		ADR	BNY	LEVEL III	
DPRCP	U	2012/12/28 17:05:49	2006/12/14	451419	444839	1.0000000	8.0000000	T		ADR	JPM	LEVEL III	
DPRCP	U	2014/07/08 22:32:30	2007/01/02	466762	466761	1.0000000	3.0000000	T	(As on 03/07/14) ADR BNY<BR>DR Symbol MPEL<BR>CUSIP 585464100<BR>DR Exchange NASDAQ Stock Market<BR>DR ISIN US5854641009<BR>Ratio DR:ORD 1:3<BR>Depositary DB (Sponsored)<BR>Effective Date Dec 19, 2006<BR>Local Exchange Not Traded<BR>Country Hong Kong<BR>Industry Travel & Leisure	ADR	DB	LEVEL III	
DPRCP	U	2015/06/15 08:22:50	2007/01/15	480226	480221	1.0000000	50.0000000	T	Solarfun Power Holdings Co<BR><BR>Symbol SOLF  <BR>CUSIP 83415U108  <BR>Exchange NASDAQ Stock Market  <BR>Ratio 1:5 <BR>Country China <BR>Industry Electricity  <BR>Depositary BNY (Sponsored) <BR>Effective Date Dec 26, 2006 <BR>Underlying ISIN HK000A231464 <BR>U.S. ISIN US83415U1088<BR><BR>	ADR	BNY	LEVEL III	
DPRCP	U	2012/12/10 07:01:49	2007/06/20	541908	604341	1.0000000	5.0000000	T	JA SOLAR HOLDINGS CO LTD<BR><BR>Symbol JASO  <BR>CUSIP 466090107  <BR>Exchange NASDAQ Stock Market  <BR>Ratio 1:3 <BR>Country China <BR>Industry Electricity  <BR>Depositary BNY (Sponsored) <BR>Effective Date Feb 12, 2007 <BR>Underlying ISIN HK000A239442 <BR>U.S. ISIN US4660901079<BR>	ADR	BNY	LEVEL III	
DPRCP	I	2007/11/06 16:32:12	2007/11/06	715113	715103	1.0000000	20.0000000	T	(As on 05/11/07) US_DR<BR>November 5, 2007<BR>New ADR program and offering announcement<BR>CNINSURE Inc. ( CNINSURE )<BR>JPMorgan announces the launch of the CNINSURE (Nasdaq: CISG) American Depositary Receipt (ADR) program, in conjunction with the company s USD216.42 million initial public offering (which included the exercise of the underwriters  over-allotment option). CNINSURE operates an independent insurance agency and brokerage company and distributes to customers in China insurance products underwritten by domestic and foreign insurance companies operating in China.<BR><BR>ADR effective date: November 5, 2007<BR>ADRs placed: 13,526,773<BR>ADR offer price: USD16.00<BR>Total ADR offering value: USD216,428,368<BR>Exchange: Nasdaq<BR>Symbol: CISG<BR>Ratio: 1 ADR: 20 ordinary shares<BR>CUSIP: 18976M 10 3<BR>Share class: Ordinary shares<BR>Country of incorporation: Cayman Islands<BR>Industry: Insurance<BR>Depositary: JPMorgan Chase Bank, N.A.<BR>Custodian: Hongkong & Shanghai Banking Co. Ltd., Hong Kong	ADR	JPM	LEVEL III	
DPRCP	U	2012/12/12 07:05:45	2007/12/11	737461	737438	1.0000000	20.0000000	T	(As on 05/12/07) USNASDAQ<BR>List Date : 12/05/2007 12:47<BR>Effective Date : 12/06/2007<BR>Issue Event : Anticipated Security Additions<BR>Symbol : VISN<BR>Company Name : VisionChina Media, Inc. American Depositary Shares<BR>Market Category : NASDAQ Stock Market<BR><BR>DR Symbol VISN <BR>CUSIP 92833U103 <BR>DR Exchange NASDAQ Stock Market  <BR>DR ISIN US92833U1034 <BR>Ratio 1:1 <BR>Depositary BNY (Sponsored) <BR>Effective Date Dec 11, 2007 <BR>Local Exchange Not Traded  <BR>Country China <BR>	ADR	BNY	LEVEL III	
DPRCP	U	2008/03/03 11:06:01	2008/01/31	763734	755356	1.0000000	2.0000000	T		ADR	CIT	LEVEL III	
DPRCP	U	2015/05/06 08:12:21	2008/03/15	798303	237708	1.0000000	1.0000000	T		ADR	CIT	LEVEL I	
DPRCP	U	2011/05/25 16:10:23	2008/05/24	909632	838727	1.0000000	3.0000000	T		ADR	CIT	LEVEL II	
DPRCP	U	2010/05/28 10:53:16	2009/03/19	1364279	1364269	1.0000000	2.0000000	T	(As on 08/04/09) BNY_DR<BR>DR Symbol CYOU <BR>CUSIP 15911M107 <BR>DR Exchange NASDAQ Stock Market  <BR>DR ISIN US15911M1071 <BR>Ratio 1:2 <BR>Depositary BK (Sponsored) <BR>Effective Date Apr 07, 2009 <BR>Local Exchange Not Traded  <BR>Underlying ISIN KYG2110J1040 <BR>Country China <BR>Industry Software&ComputerSvc <BR><BR>(As on 07/04/09) BNY_DR<BR>New DR Announcement<BR>Changyou.com Limited<BR><BR>Changyou.com is an online game developer and operator based in China. Co.`s flagship product is<BR>the online game Tian Long Ba Bu, or TLBB. Co. engages in the development, operation and<BR>licensing of its massively multi-player online role-playing games, or MMORPGs, which are<BR>interactive online games that may be played simultaneously by hundreds of thousands of game<BR>players. Co. operates two MMORPGs, TLBB, which Co. developed in-house, and Blade Online, or<BR>BO, which Co. licenses from a third party. Co. has three MMORPGs in the pipeline, the Duke of<BR>Mount Deer (DMD), Immortal Faith (IF) and the Legend of the Ancient World (LAW). Co.<BR>maintains approximately 1.8 million active paying accounts. - Data provided by Mergent, Inc.<BR><BR>Effective Date: April 7, 2009<BR>Country of Incorporation: Cayman Islands<BR>Exchange: NASDAQ Stock Market<BR>Ticker Symbol: CYOU<BR>CUSIP Number: 15911M107<BR>Ratio: 1:2<BR>Underlying Share Description: Common<BR>Industry Classification: Software&ComputerSvc<BR>Local Custodian(s): Hong Kong and Shanghai Banking Corp. (CN)<BR><BR>(As on 02/04/09) MERGENTCA<BR>title                   :New Issue                                                             <BR>officialName            :Changyou.com Ltd.                                                     <BR>effectiveDate           :04/02/2009                                                            <BR>issueDetail             :                                                                      <BR>countryCode             :CYM                                                                   <BR>issueDescription        :ADR Repstg Cl A                                                       <BR>issueType               :American Depositary Receipt                                           <BR>primaryTicker           :CYOU                                                                  <BR>primaryExchange         :NMS - NASDAQ National Market System                                   <BR>identifiers             :                                                                      <BR>Identifier Type         :ISIN` Number=`US15911M1071`                                           <BR>status                  :A                                                                     <BR>lifeStage               :Trading                                                               <BR>termsAndConditions      :                                                                      <BR>companyInfo             :                                                                      <BR>issueDescription        :ADR Repstg Cl A                                                       <BR>ticker                  :CYOU                                                                  <BR>exchangeCode            :NMS - NASDAQ National Market System                                   <BR>cusip                   :15911M107                                                             <BR>typeOf                  :New Issue                                                             <BR>	ADR	BNY	LEVEL I	
DPRCP	U	2014/06/13 18:20:16	2010/05/26	1930504	1930488	1.0000000	1.0000000	T	(As on 26/05/10) BNY_DR<BR>DR Symbol KONE <BR>CUSIP 496880105 <BR>DR Exchange NASDAQ Stock Market  <BR>DR ISIN US4968801054 <BR>Ratio 1:1 <BR>Depositary BK (Sponsored) <BR>Effective Date May 19, 2010 <BR>Local Exchange Not Traded  <BR>Country China <BR>Industry Mobile Telecom.  <BR>	ADR	BNY	LEVEL III	
DPRCP	I	2010/06/14 17:42:39	2010/06/14	1973334	1973325	1.0000000	4.0000000	T	(As on 14/06/10) CIT_DR<BR>China Lodging Group Ltd<BR><BR>CUSIP 16949N109   (Active) <BR>Ratio (ORD:ADRS)  4 :1  <BR>Company name  China Lodging Group Ltd. <BR>Stock symbol HTHT <BR>DR Type ADR <BR>Active Date  3/31/2010 <BR>Country China <BR>Depositary  Citi  (Sponsored) <BR>GICS Industry   Travel & Leisure <BR>Depositaries   Custodians CITIBANK HONG KONG  <BR>Product Milestones    NASDAQ IPO on 3/31/2010 for Citi Sponsored Level III ADR programCapital Raising of USUSD127MM with 10.35MM shares placed at a price of USUSD12.25. <BR>	ADR	CIT	LEVEL III	
DPRCP	U	2014/06/13 18:56:25	2010/06/16	1975124	1975121	1.0000000	1.0000000	T		ADR	BNY	LEVEL II	
DPRCP	U	2014/07/02 22:24:49	2010/07/30	2033919	578785	1.0000000	40.0000000	T	(As on 29/07/10) BNY_DR<BR>DR Symbol MOKOY <BR>CUSIP 608458105 <BR>DR Exchange OTC  <BR>DR ISIN US6084581056 <BR>Ratio 1:20 <BR>Depositary BK (Sponsored) <BR>Effective Date Jul 29, 2010 <BR>Underlying ISIN AU000000MKB5 <BR>Underlying SEDOL B1X9WY8 <BR>Country Australia <BR>Industry Mobile Telecom <BR>	ADR	BNY	LEVEL III	
DPRCP	U	2011/05/25 15:53:40	2011/05/23	2706457	2706453	2.0000000	3.0000000	T	(As on 23/05/11) CIT_DR<BR>Jiayuan.com International Ltd. (NASDAQ: DATE)<BR><BR>DR Program Information<BR>Company name  Jiayuan.com International Ltd. <BR>CUSIP 477374102  (Active) <BR>Ratio (ORD:DRS)  3 :2  <BR>DR Ticker DATE <BR>DR ISIN   US4773741024 <BR>DR Type   ADR <BR>Country   China <BR>Active Date    5/16/2011 <BR>GICS Industry Information Technology <BR>Depositary    Citi (Sponsored) <BR>Custodians  CITIBANK HONG KONG <BR>Product Milestones  Single-listed ADR program. IPO offering in conjunction with listing totaling over USUSD78MM. <BR><BR>	ADR	CIT	LEVEL III	
DPRCP	U	2012/07/23 10:26:26	2011/06/13	2765649	1951420	1.0000000	1.0000000	T	(As on 13/06/11) DB_DR<BR>DR Details<BR>GRIFOLS SA<BR>Description:GRIFOLS SA ( NON-VOTING )<BR>Country:Spain<BR>Industry:Healthcare<BR><BR>General Information<BR>Ticker Symbol:GRFS<BR>Exchange:NASDAQ (IND)<BR>Ratio (ORD:DR):1:2<BR>Structure:ADR<BR>Type:Level III<BR>Spon/Unspon:Sponsored<BR>CUSIP:398438309<BR>DR ISIN:US3984383097<BR>ORD SEDOL:B3Y5WX8<BR>ORD ISIN:ES0171996004<BR>Depositary Bank:DB<BR>Status:Active<BR>Custodian Bank:Deutsche Bank SAE	ADR	DB	LEVEL III	
DPRCP	U	2014/06/13 18:54:13	2012/04/14	3733767	10716	1.0000000	30.0000000	T	(As on 13/04/12) DR_BNY<BR>Prima BioMed <BR><BR>DR Symbol PBMD <BR>CUSIP 74154B203 <BR>DR Exchange NASDAQ Stock Market <BR>DR ISIN US74154B2034 <BR>Ratio 1:30 <BR>Depositary BK (Sponsored) <BR>Effective Date Apr 16, 2012 <BR>Underlying ISIN AU000000PRR9 <BR>Underlying SEDOL 6350516 <BR>Country Australia <BR>Industry HealthCareEquip.&Ser <BR>	ADR	BNY	LEVEL II	
DPRCP	U	2015/08/24 08:30:24	2012/07/12	3870519	10780	1.0000000	20.0000000	T	(As on 21/05/14) USDRBNY<BR>Benitec Biopharma Limited / Unsponsored to Sponsored Exchange<BR>The Bank of New York Mellon ( BNY Mellon ) has been appointed sponsored Depositary for Benitec Biopharma Limited. As a result, BNY Mellon is announcing the mandatory exchange of the unsponsored ADRs into sponsored ADRs as follows:<BR>Effective Date   May 30, 2014<BR>OLD: Benitec Biopharma Limited (Unsponsored)<BR>CUSIP: 082053109<BR>Symbol: BTCPY<BR>Ratio: 1 ADS: 1000 Ordinary Shares<BR>Country of Incorporation: Australia<BR><BR>NEW: Benitec Biopharma Limited (Sponsored)<BR>CUSIP: 082053208<BR>Symbol: TBD<BR>Ratio: 1 ADS: 5 Ordinary Shares<BR>Country of Incorporation: Australia<BR>Beginning on May 30, 2014 registered holders must surrender their old unsponsored ADR certificates of Benitec Biopharma Limited (CUSIP: 082053109) to BNY Mellon for cancellation in order to receive the new sponsored ADRs of Benitec Biopharma Limited (CUSIP: 082053208) at the rate of 200 (two hundred) sponsored ADSs for every 1 (one) unsponsored ADS.<BR><BR>(As on 11/07/12) BNY_DR<BR>Benitec Biopharma <BR>DR Symbol    BTCPY <BR>CUSIP    082053109 <BR>DR Exchange   OTC <BR>DR ISIN    US0820531095 <BR>Ratio    1:1000 <BR>Depositary    BK (Unsponsored) <BR>First Filer    BK  <BR>Effective Date   Jul 12, 2012 <BR>Underlying ISIN   AU000000BLT8 <BR>Underlying SEDOL   6710507 <BR>Country   Australia <BR>Industry   Pharma. & Biotech.  <BR><BR>(As on 10/07/12) USOTC<BR>Security Additions<BR>Symbol : BTCPY <BR>Company Name : Benitec Biopharma Ltd Unsponsored ADR (Australia) <BR>Effective Date : 7/11/2012<BR>OATS Reportable Flag : Y<BR>Unit of Trade : 100<BR>	ADR	BNY	LEVEL III	
DPRCP	U	2015/09/17 08:12:35	2012/12/19	3952072	3952063	1.0000000	100.0000000	T	(As on 07/12/12) DR_BNY<BR>Morria Biopharmaceuticals<BR>DR Symbol MRRBY<BR>CUSIP 617764105<BR>DR Exchange OTC<BR>DR ISIN US6177641056<BR>Ratio 1:2<BR>Depositary DB (Sponsored)<BR>Effective Date Dec 07, 2012<BR>Local Exchange Not Traded<BR>Country United Kingdom<BR>Industry Pharma. & Biotech.<BR>	ADR	DB	LEVEL II	
DPRCP	U	2014/06/13 18:56:39	2013/01/02	3956754	3940540	1.0000000	5.0000000	T	(As on 31/12/12) CIT_DR<BR>DR Program Information<BR>Company name :  WPP Group plc<BR>CUSIP :  92937A102  (Active)<BR>Ratio (ORD:DRS) : 5 :1<BR>DR Ticker: WPPGY<BR>ORD Ticker : WPP LN<BR>ORD ISIN : JE00B8KF9B49<BR>DR Type : ADR<BR>Country : U.K.<BR>Active Date : 1/30/1987<BR>GICS Industry : Information Technology<BR>Depositary : Citi (Sponsored)<BR>Custodians :  CITIBANK NA. (LONDON)	ADR	CIT	LEVEL II	
DPRCP	U	2014/07/11 18:19:39	2013/05/08	4032539	4032530	1.0000000	1.0000000	T	(As on 08/05/13)  DR_BNY<BR>QIWI<BR>DR Symbol QIWI<BR>CUSIP 74735M108<BR>DR Exchange NASDAQ Stock Market<BR>DR ISIN US74735M1080<BR>Ratio 1:1<BR>Depositary BK (Sponsored)<BR>Effective Date May 08, 2013<BR>Local Exchange Not Traded<BR>Underlying ISIN CY009A1XIC85<BR>Country Russia<BR>Industry Financial Services<BR><BR>(As on 03/05/13)  USNASDAQ<BR>Effective Date :3/5/2013<BR>Issue Event :Security Additions<BR>Symbol :QIWI<BR>Company Name  :QIWI plc American Depositary Shares<BR>Market Category : Q<BR>Listing Center : NASDAQ Stock Market<BR>First Date Traded :3/5/2013<BR>TSO : 12000000<BR><BR> <BR><BR>	ADR	BNY	LEVEL III	
DPRCP	U	2014/06/13 18:55:27	2013/05/22	4042318	590658	1.0000000	2.0000000	T	(As on 21/05/2013) BNY_DR<BR>DR Symbol UBIC<BR>CUSIP 90346V105<BR>DR Exchange NASDAQ Stock Market<BR>DR ISIN US90346V1052<BR>Ratio 5:1<BR>Depositary BK (Sponsored)<BR>Effective Date May 21, 2013<BR>Underlying ISIN JP3944630007<BR>Underlying SEDOL B1Y4DN8<BR>Country Japan<BR>Industry Tech.Hardware&Equip.<BR><BR>(As on 16/05/13) <BR>Daily List Date :  05/16/2013 09:24:22<BR>Effective Date :  05/14/2013<BR>Issue Event :  Security Additions<BR>Symbol :  UBIC<BR>Company Name :  UBIC, Inc. American Depositary Shares<BR>Listing Center :  NASDAQ Stock Market<BR>First Date Traded :  05/16/2013<BR>Description :  American Depositary Shares<BR>Transfer Agent :  Bank Of New York Mellon Corporation (The)<BR>TSO Date :  05/14/2013<BR>	ADR	BNY	LEVEL III	
DPRCP	U	2013/10/26 16:44:23	2013/10/16	4126594	3891761	1.0000000	5.0000000	T	(As on 25/10/13) USDRCITI<BR>DR Program Information<BR>Company name  Abengoa SA<BR>CUSIP 00289R201  (Active)<BR>Ratio (ORD:DRS)  5 :1<BR>DR Ticker ABGB<BR>DR ISIN US00289R2013<BR>ORD ISIN ES0105200002<BR>DR Type ADR<BR>Country Spain<BR>Active Date  10/22/2013<BR>GICS Industry Energy<BR>Depositary  Citi (Sponsored)<BR>Custodians  CITIBANK INTERNATIONAL PLC<BR>Product Milestones  Level III ADR<BR><BR>(As on 05/10/13) US_IPO<BR>ADSs Each ADS represents five Class B shares. ADSs may be evidenced by American Depositary Receipts, or ADRs. The depositary will be the holder of the ordinary shares underlying the ADSs and you will have the rights of an ADR holder as provided in the deposit  agreement among us, the depositary, and holders and beneficial owners of ADSs from time to time.<BR>Depositary for the ADSs Citibank, N.A.<BR>	ADR	CIT	LEVEL III	
DPRCP	U	2013/11/08 16:52:00	2013/10/30	4134441	4134437	1.0000000	3.0000000	T	(As on 07/11/13) USDRDB<BR>Qunar Cayman Islands Limited<BR>Deutsche Bank Appointed as Depositary Bank for the Sponsored Level III NASDAQ-Listed American Depositary Receipt Program of Qunar Cayman Islands Limited<BR>Deutsche Bank today announced its appointment as depositary bank for the capital raising sponsored Level III NASDAQ-listed American<BR>Depositary Receipt (ADR) program of Qunar Cayman Islands Limited (Qunar).<BR>Depositary Receipt Information<BR>Country China (Cayman Incorporated)<BR>Custodian Bank Deutsche Bank AG, Hong Kong Branch<BR>Effective Date November 6, 2013<BR>Level III ADR<BR>CUSIP 74906P104<BR>ISIN US74906P1049<BR>Symbol QUNR<BR>Exchange NASDAQ<BR>Ratio 1 ADS :3 Class B ORD<BR>Eligibility DTC<BR><BR>(As on 29/10/13) US_IPO<BR>QUNAR CAYMAN ISLANDS LTD<BR><BR>The ADSs Each ADS represents three of our Class B ordinary shares, par value USUSD0.001 per share. The ADSs may be evidenced by an ADR.<BR><BR>Depositary Deutsche Bank Trust Company Americas	ADR	DB	LEVEL III	
DPRCP	U	2014/04/11 16:31:03	2014/03/20	4225815	4225798	1.0000000	1.0000000	T	(As on 10/04/14 USDRCITI<BR>Citi Appointed Depositary Bank for Tarena International<BR>Inc. s Sponsored ADR Program<BR>Citi s Issuer Services business, acting through Citibank N.A., has been appointed by Tarena International Inc. ( Tarena ), a Cayman Islands registered China-based company, as the depositary bank for its Level 3 American Depositary Receipt (ADR) program. Tarena s ADR program was established through a USD137.7 million offering, originally priced at USD9.00 per ADR. The ADRs are listed on the NASDAQ under the symbol  TEDU . Each ADR represents one Class A ordinary share; however, as a single-listed ADR program, the underlying ordinary shares represented by the ADRs are not listed or publicly traded in the issuer s home market.  It s a privilege to be appointed the Depositary Bank by Tarena,  said Dirk Jones, Head of Global Issuer Services at Citi.  We are very pleased to be chosen for their ADR program. With Citi s excellent investor relations expertise and unparalleled global presence, we re confident Citi s powerful platform will facilitate the success of Tarena s ADR program.  Citi is a leading provider of Depositary Receipt Services. With Depositary Receipt programs in 55 markets, Citi leverages its global network to help companies connect to new markets and raise capital worldwide<BR><BR>(As on 19/03/14) US_IPO<BR>TARENA INTERNATIONAL, INC<BR>The ADSs Each ADS represents one Class A ordinary share, par value USUSD0.001 per share<BR>Depositary Citibank, N.A.	ADR	CIT	LEVEL III	
DPRCP	U	2015/06/18 14:20:09	2014/09/23	4352423	3629186	2.0000000	1.0000000	T	(As on 27/10/14)n USDRCITI<BR>Citi Appointed Depositary Bank for DBV Technologies  ADR Program<BR>Citi s Issuer Services business, acting through Citibank N.A., has been appointed by DBV Technologies S.A. ( DBV Technologies ), a clinical-stage specialty biopharmaceutical company as depositary bank for their NASDAQ listed American Depositary Receipt (ADR) program. DBV Technologies American Depositary Shares are listed on NASDAQ Global Select Market under symbol  DBVT . The underlying ordinary shares are listed on Euronext Paris and trade under symbol  DBV . David Schilansky, Chief Financial Officer at DBV Technologies commented,  We are excited about being more visible in the US and having direct access to US investors through our NASDAQ listing. We look forward to working closely with Citi and leveraging their institutional investor and broker relationships to develop our US shareholder base further.   Citi is delighted to be appointed by DBV Technologies as depositary bank for their US listing,  Dirk Jones, Global Head of Issuer Services said.  We are confident that we will be able to assist DBV Technologies in expanding their investor outreach through the support of our Investor Relations Advisory team and our unparalleled equity distribution network.  Citi is a leading provider of Depositary Receipt Services. With Depositary Receipt programs in 55 markets, Citi leverages its global network to help companies connect to new markets and raise capital worldwide<BR><BR><BR>(As on 22/09/14) SEC_IPO<BR>DBV TECHNOLOGIES S.A.<BR>FORM F-1<BR>American Depositary Shares Each ADS represents one ordinary share, nominal value eur0.10 per share.<BR>Depositary Citibank, N.A.	ADR	CIT	LEVEL III	
DPRCP	I	2015/01/21 16:16:03	2015/01/21	4429991	4429978	1.0000000	2.0000000	T	(As on 20/01/15) SEC_IPO<BR>Advanced Accelerator Applications S.A.<BR>FORM F-1/A<BR>THE OFFERING<BR>ADSs offered by us: 5,358,000 ADSs representing 10,716,000 ordinary shares<BR>Depositary : The Bank of New York Mellon<BR>NASDAQ trading symbol :   AAAP <BR>	ADR	BNY	LEVEL III	
DPRCP	U	2015/03/19 14:10:23	2015/02/21	4450003	4450000	1.0000000	1.0000000	T	(As on 20/02/15) SEC_IPO<BR>Cellectis S.A.<BR>FORM F-1<BR>American Depositary Shares Representing              Ordinary Shares<BR>This is the initial public offering of American Depositary Shares, or ADSs, of Cellectis. Each ADS represents one ordinary share. Prior to this offering there has been no public market for our ADSs. Our ordinary shares are listed on the Alternext market of Euronext in Paris under the symbol `ALCLS.` On February 19, 2015, the last reported sale price of our ordinary shares was EUR24.02 per share, equivalent to a price of USD27.40 per share, assuming an exchange rate of USD1.1408 per euro. After the pricing of this offering, we expect our ADSs will trade on the Nasdaq Global Market under the symbol `CLLS.  The ADSs will be ready for delivery on or about ,              2015 through the book-entry facilities of The Depository Trust Company.<BR><BR>Proposed maximum aggregate offering price: USD 115,000,000<BR>Ordinary Shares, EUR0.05 nominal value per share<BR><BR>Corporate Information<BR>We were incorporated as a societe anonyme , or S.A., on January 4, 2000. We are registered at the Paris Registre du Commerce et des Societes under the number 428 859 052. Our principal executive offices are located at 8, rue de la Croix Jarry, 75013 Paris, France, and our telephone number is +33 1 81 69 16 00. Our agent for service of process in the United States is Puglisi & Associates. We also maintain a website at www.cellectis.com . The reference to our website is an inactive textual reference only and the information contained in, or that can be accessed through, our website is not a part of this prospectus.<BR><BR>MANAGEMENT<BR>Andre Choulika, Ph.D.             Chief Executive Officer, Chairman of the Board and Co-Founder<BR><BR>THE OFFERING<BR>ADSs offered by us             ADSs.<BR>Depositary Citibank, N.A.<BR>Proposed Nasdaq Global Market trading symbol for our ADSs `CLLS`<BR>American Depositary Shares Each ADS represents one ordinary share.<BR><BR>UNDERWRITING<BR>Merrill Lynch, Pierce Fenner & Smith Incorporated and Jefferies LLC are acting as representatives of each of the underwriters named below. Subject to the terms and conditions set forth in an underwriting agreement among us and the underwriters, we have agreed to sell to the underwriters, and each of the underwriters has agreed, severally and not jointly, to purchase from us, the number of ADSs forth opposite its name below.<BR>Merrill Lynch, Pierce, Fenner & Smith Incorporated<BR>Jefferies LLC<BR>Piper Jaffray & Co.<BR>Oppenheimer & Co. Inc.<BR>Trout Capital LLC<BR><BR>LEGAL MATTERS<BR>Jones Day, New York, New York, is representing the company in connection with this offering. Jones Day, Paris, France, will pass upon the validity of the ordinary shares represented by the ADSs offered hereby and other legal matters concerning this offering relating to French law, including matters of French income tax law. Latham & Watkins LLP, Costa Mesa, California, is representing the underwriters in connection with this offering.<BR><BR>Listing<BR>We have applied to list the ADSs on the Nasdaq Global Market under the symbol `CLLS.`<BR><BR>Transfer Agent and Registrar<BR>Upon the closing of this offering, the transfer agent and registrar for the ADSs will be Citibank, N.A.<BR>	ADR	CIT	LEVEL III	
DPRCP	U	2015/11/09 07:26:05	2015/05/19	4513866	342440	1.0000000	5.0000000	T	(As on 18/05/2015 ) USNASDAQ<BR>Effective Date :05/20/2015<BR>Issue Event :Anticipated Security Additions<BR>Symbol :MDGS<BR>Company Name  :Medigus Ltd. American Depositary Share<BR>Listing Center  :NASDAQ Stock Market<BR>Description   :American Depositary Share<BR><BR><BR>(As on 18/05/2015) DR_BNY<BR>DR Symbol MDGS<BR>CUSIP 58471G102<BR>DR Exchange NASDAQ Stock Market<BR>DR ISIN US58471G1022<BR>Ratio DR:ORD 1:100<BR>Depositary BK (Sponsored)<BR>Effective Date May 15, 2015<BR>Underlying ISIN IL0010961717<BR>Underlying SEDOL B11CMJ4<BR><BR>(As on 18/05/2015) DR_CITI<BR>Company name  Medigus Ltd<BR>CUSIP 58471G102  (Active)<BR>Ratio (ORD:DRS)  100 :1<BR>DR Ticker MDGS<BR>ORD Ticker MDGS IT<BR>DR ISIN US58471G1022<BR>ORD ISIN IL0010961717<BR>Sedol B11CMJ4<BR>DR Type ADR<BR>Country Israel<BR>Depositary  BoNY (Sponsored)<BR>Unsponsored<BR>Depositaries  <BR>Custodians <BR>Flags  <BR>Product Milestones  <BR>Comments  Level II<BR>	ADR	BNY	LEVEL II	
EDI_ENDOFFILE
